{
  "$schema": "../node_modules/@alfresco/adf-core/app.config.schema.json",
  "bpmHost": "http://{YOUR IP ADDRESS}:80",
  "identityHost": "http://{YOUR IP ADDRESS}:80/auth/realms/activiti",
  "providers": "BPM",
  "application": {
    "name": "Alfresco ADF Application"
  },
  "authType": "OAUTH",
  "oauth2": {
    "host": "http://{YOUR IP ADDRESS}:80/auth/realms/activiti",
    "clientId": "activiti",
    "scope": "openid email",
    "secret": "",
    "implicitFlow": true,
    "silentLogin": true,
    "redirectSilentIframeUri": "http://{YOUR IP ADDRESS}:80/assets/silent-refresh.html",
    "redirectUri": "/",
    "redirectUriLogout": "/logout"
  },
  "languages": [
    {
      "key": "en",
      "label": "English"
    },
    {
      "key": "fr",
      "label": "French"
    },
    {
      "key": "de",
      "label": "German"
    },
    {
      "key": "it",
      "label": "Italian"
    },
    {
      "key": "es",
      "label": "Spanish"
    },
    {
      "key": "ja",
      "label": "Japanese"
    },
    {
      "key": "nl",
      "label": "Dutch"
    },
    {
      "key": "pt-BR",
      "label": "Brazilian Portuguese"
    },
    {
      "key": "nb",
      "label": "Norwegian"
    },
    {
      "key": "ru",
      "label": "Russian"
    },
    {
      "key": "zh-CN",
      "label": "Simplified Chinese"
    }
  ],
  "logLevel": "trace",

  "adf-cloud-task-list": {
    "presets": {
      "default": [
        {
          "key": "id",
          "type": "text",
          "title": "ADF_CLOUD_TASK_LIST.PROPERTIES.ID",
          "cssClass": "adf-expand-cell-4",
          "sortable": true
        },
        {
          "key": "name",
          "type": "text",
          "title": "ADF_CLOUD_TASK_LIST.PROPERTIES.NAME",
          "sortable": true,
          "cssClass": "name-column adf-ellipsis-cell"
        },
        {
          "key": "status",
          "type": "text",
          "title": "ADF_CLOUD_TASK_LIST.PROPERTIES.STATUS",
          "sortable": true
        },
        {
          "key": "priority",
          "type": "text",
          "title": "ADF_CLOUD_TASK_LIST.PROPERTIES.PRIORITY",
          "sortable": true
        },
        {
          "key": "createdDate",
          "type": "date",
          "title": "ADF_CLOUD_TASK_LIST.PROPERTIES.CREATED_DATE",
          "sortable": true,
          "format": "timeAgo"
        },
        {
          "key": "lastModified",
          "type": "date",
          "title": "ADF_CLOUD_TASK_LIST.PROPERTIES.LAST_MODIFIED",
          "sortable": true,
          "format": "timeAgo"
        }
      ]
    }
  },
  "alfresco-deployed-apps": [{"name": "npm "}]
}

